 _______   __   _______     _______  .______       _______  __      _______ .______       _______  .__   __.  __    __   _______      _______.     _______. _______
|       \ |  | |   ____|   |       \ |   _  \     |   ____||  |    |   ____||   _  \     |       \ |  \ |  | |  |  |  | |   ____|    /       |    /       ||   ____|
|  .--.  ||  | |  |__      |  .--.  ||  |_)  |    |  |__   |  |    |  |__   |  |_)  |    |  .--.  ||   \|  | |  |  |  | |  |__      |   (----`   |   (----`|  |__
|  |  |  ||  | |   __|     |  |  |  ||      /     |   __|  |  |    |   __|  |      /     |  |  |  ||  . `  | |  |  |  | |   __|      \   \        \   \    |   __|
|  '--'  ||  | |  |____    |  '--'  ||  |\  \----.|  |____ |  |    |  |____ |  |\  \----.|  '--'  ||  |\   | |  `--'  | |  |____ .----)   |   .----)   |   |  |____
|_______/ |__| |_______|   |_______/ | _| `._____||_______||__|    |_______|| _| `._____||_______/ |__| \__|  \______/  |_______||_______/    |_______/    |_______|
